…
``` r
baby_names %>% select(childs_first_name, year_of_birth,ethnicity, rank) %>%
  filter(childs_first_name == "olivia")
```

    ## # A tibble: 24 x 4
    ##    childs_first_name year_of_birth ethnicity                   rank
    ##    <chr>                     <dbl> <chr>                      <dbl>
    ##  1 olivia                     2016 ASIAN AND PACIFIC ISLANDER     1
    ##  2 olivia                     2016 BLACK NON HISPANIC             8
    ##  3 olivia                     2016 HISPANIC                      13
    ##  4 olivia                     2016 WHITE NON HISPANIC             1
    ##  5 olivia                     2015 ASIAN AND PACIFIC ISLANDER     1
    ##  6 olivia                     2015 BLACK NON HISPANIC             4
    ##  7 olivia                     2015 HISPANIC                      16
    ##  8 olivia                     2015 WHITE NON HISPANIC             1
    ##  9 olivia                     2014 ASIAN AND PACIFIC ISLANDER     1
    ## 10 olivia                     2014 BLACK NON HISPANIC             8
    ## # … with 14 more rows

``` r
filter(baby_names, gender=="MALE")
```

    ## # A tibble: 5,963 x 6
    ##    year_of_birth gender ethnicity              childs_first_na… count  rank
    ##            <dbl> <chr>  <chr>                  <chr>            <dbl> <dbl>
    ##  1          2016 MALE   ASIAN AND PACIFIC ISL… ethan              193     1
    ##  2          2016 MALE   ASIAN AND PACIFIC ISL… ryan               160     2
    ##  3          2016 MALE   ASIAN AND PACIFIC ISL… muhammad           157     3
    ##  4          2016 MALE   ASIAN AND PACIFIC ISL… lucas              148     4
    ##  5          2016 MALE   ASIAN AND PACIFIC ISL… jayden             138     5
    ##  6          2016 MALE   ASIAN AND PACIFIC ISL… aiden              133     6
    ##  7          2016 MALE   ASIAN AND PACIFIC ISL… daniel              81     7
    ##  8          2016 MALE   ASIAN AND PACIFIC ISL… evan                77     8
    ##  9          2016 MALE   ASIAN AND PACIFIC ISL… jason               76     9
    ## 10          2016 MALE   ASIAN AND PACIFIC ISL… liam                76     9
    ## # … with 5,953 more rows
…
